ch jnk 22 7
aqk w 91 6
lnw tgk 82 7
flc du 45 6
mxk we 36 2
unr tbr 91 5
ld gox 8 2
uv kq 65 1
whz pdv 90 7
xrf woj 74 3
lqk qi 11 1
zb vb 15 1
djk pwu 97 5
dk jlx 81 8
gn crt 54 8
a tk 45 7
tlu qc 20 7
ke tn 16 6
sgh ms 16 7
aqs mf 45 9
hu mw 10 3
nr gbp 19 8
jug sun 25 7
bs dd 63 9
kfl ow 49 7
bfo oo 23 9
xq jrj 97 1
ovn mid 45 1
af mw 53 4
lq owi 5 7
zf zgl 92 7
los bf 26 9
n uqc 27 6
rne nr 78 7
pcw wx 80 9
pc vpv 78 2
kgv nrx 23 7
xa wn 12 1
mrq mw 49 9
cn vhc 72 8
pwu aqk 8 8
qi ez 43 2
nh hm 22 7
tq dks 27 6
vq ovn 17 4
ow on 48 2
ruh ojt 65 3
pn e 68 5
vpn gdz 5 4
it wi 69 6
cxl eu 73 8
vap gr 58 1
sri bu 55 8
fwv uv 60 4
nun ks 63 8
gbl rnx 57 9
nt jnc 84 6
hd xlt 7 3
mvs fbw 78 6
dsz lon 46 3
ks veq 21 3
ec dsz 54 9
xad qhc 26 5
xjw nk 83 7
zg slr 63 8
gss sjx 88 4
itl ow 63 3
i pdv 71 6
vqg om 61 2
khm bb 99 9
len im 40 7
djk bii 5 1
pd dvw 10 8
hd aqk 62 7
tsu vdz 64 7
heb hcc 81 1
vwx im 17 9
pxu qn 14 5
tvo opb 92 3
rr dfm 32 6
amc pij 53 5
uj fne 25 7
pfh aqs 12 6
irt oo 63 9
xlt sri 6 6
du vpn 10 4
tvm jo 55 2
a tcm 45 4
sv tbr 62 1
nea uoq 3 9
qij kam 71 2
ic kbf 49 1
wl wl 47 1
dvw kj 97 8
cnk vn 94 7
cw ev 83 6
ke tdb 86 4
wj ths 84 8
vzu i 86 8
vz kxj 99 6
fl gn 81 2
ris ht 14 3
ub zwv 23 1
mq gt 73 7
po cdv 74 8
enu uqv 69 6
mn fbw 81 4
rl gfb 52 2
uqv jde 98 1
fwv hba 39 7
lfz egw 21 1
puc jb 67 4
buu urw 88 5
fic wl 62 2
gbp jfg 45 7
zug tar 59 5
fkk vxw 30 7
ojt wbv 18 8
nk rne 95 2
zja oju 41 3
tm tg 82 6
x mcs 41 4
hf tq 26 2
lfi wl 86 3
oqu ppi 10 4
em mga 9 2
sf ucw 88 4
xc nq 13 5
zh pdq 68 2
sv nv 59 9
nh kfl 61 6
pc lq 80 2
bix gn 12 2
xm lxh 80 6
ilc xb 64 2
xt aat 95 4
qx is 20 7
tl xmr 80 7
mjz uq 47 4
uqc sts 60 2
xo wx 8 2
ub jfg 6 4
ekv i 62 5
jfz eal 29 7
xlk pca 67 7
sb cu 66 6
xd amc 44 3
qpr sts 37 1
gcp xrf 10 1
gho ep 18 5
bf oo 75 7
edn uqc 39 4
pbe ldr 85 3
zdo hm 71 4
nea tvm 94 6
xv di 46 6
mga zw 55 1
uan fhq 6 5
kam di 18 5
mw qzc 92 4
dd zv 89 6
r pdq 92 9
ucw zb 93 5
ef gn 18 8
kz di 39 5
gj pdq 15 7
ftu qt 49 6
xb xc 67 5
a rlu 58 2
aqs vpn 68 6
clr ro 18 3
uqv oo 83 1
fw tk 43 5
ds sf 8 7
pvx vlk 90 8
qdk brp 4 3
hix jo 84 3
wlx pf 45 1
xk slr 90 5
pqo oj 98 4
dx dq 42 6
rl jug 89 5
bse kfi 67 8
au ve 11 6
jq cnk 12 5
dm hm 53 9
zn nk 99 8
mcs ikj 39 8
ht ep 75 2
uep cf 33 6
vhc dpo 41 5
dm wpf 66 2
kcl iki 69 7
zjx zsj 61 2
sn xq 66 6
jde vns 64 7
pwu vc 95 5
vhc lfz 91 7
qts oj 46 5
rj ftu 15 5
lxm cbo 45 1
gb vn 81 1
rkk rla 47 7
li pd 40 6
abp dfm 67 6
jb g 5 4
dn lz 58 2
pe q 94 5
mnw bb 49 2
tsu nea 37 8
cbd bbj 16 9
puz dvw 43 2
zl ikj 57 8
c opb 46 1
ot ee 21 5
fic is 52 2
gox vom 94 8
vpn rfj 39 2
ehb dl 90 2
al qkq 21 6
re ds 78 5
wu sf 86 4
zv mrq 9 3
mg bii 58 3
wpf ue 26 4
ve aoz 14 6
mfs om 31 7
vdb ojt 91 5
rnx sla 8 1
lfz gho 86 7
wc tfa 91 2
xt ef 82 2
lgo jlx 98 2
si et 53 9
flc dlv 95 9
tb rrc 79 1
rla okg 3 9
lon tlu 95 4
xad ddz 57 4
pr xax 91 4
lgo dj 58 8
map jnc 43 6
pxu xqu 82 5
kom hd 20 1
zmc gox 41 1
nrx dg 17 5
mf vfh 31 6
bu sz 41 5
mw waq 66 8
jko lon 25 1
lsz abp 20 6
jhp zq 64 1
bf sri 54 1
bm mws 10 6
sb al 16 3
uv uqt 67 8
hug ilc 71 2
cb oqu 82 4
q vdb 96 9
on kfi 34 8
rh nr 77 9
ei ss 71 7
vqg dl 11 4
jhp vsk 48 8
bo kz 93 8
qts buu 80 7
cq xnh 75 9
bcx slr 43 4
fne s 57 9
uqc fa 70 7
ers hr 92 6
okg jfg 77 3
rb okg 10 5
wax rlu 54 5
qzc lq 45 4
vpn hm 12 5
jjp ano 79 5
vqu wok 44 2
tcm okx 21 6
eal puc 46 9
mw pzl 58 7
zsj nq 8 6
ths bh 56 3
vqu ax 66 6
qt it 67 5
amc cw 61 7
tb et 86 5
mid ntw 52 2
gg zb 15 5
d jlm 46 1
qn p 28 4
ni pdq 74 9
eal vb 24 2
wjd aqk 82 4
la waq 7 1
cf hd 33 9
pfh dl 2 3
weh on 84 9
eo eo 23 5
sx uj 3 8
rp okx 40 5
uh uqt 91 4
ch kgv 49 8
jne fic 74 8
pdq gox 40 1
mf pc 6 1
pma mcs 73 7
hk xai 8 2
bq pwu 50 9
ikj rlu 48 7
jhc w 30 7
zn xz 60 3
khm agt 61 8
zdf blj 98 2
qve mnw 92 9
bix cv 39 5
ub re 83 8
uvr kda 87 4
jb cf 85 3
irt xnh 54 4
eal pqo 3 7
rk lcw 60 9
zja bbj 30 2
lv nhd 91 2
gbo xax 13 9
rmq em 42 3
ai v 62 6
xbw cq 3 3
mn bm 98 2
hug nnc 51 6
ukw lpv 97 6
qga dls 24 4
ue dom 92 5
rrc tsu 16 3
ut ap 47 5
jug dsz 47 8
bh jde 2 1
xo gbl 41 4
xc ana 18 6
rb okg 10 1
fne wd 49 2
fe qga 93 1
zwv nea 71 7
gtr njo 38 8
mxg rxb 82 3
bm tom 99 4
a gl 93 6
gbo is 49 2
seo pxu 51 5
lsg jug 64 2
xxl dgf 70 4
ppi tlg 14 8
gox zmc 27 4
rfj kk 59 7
uwk cgi 40 3
nuv zdf 38 2
ag xb 62 3
ppi oku 23 7
pca xd 55 2
jnk kxj 19 5
hcc gt 74 6
hkq lxh 19 5
jb ld 38 4
lxh xo 65 6
bf tlg 72 8
wu qve 25 3
vqg dc 2 2
i khm 88 8
zs gr 32 7
fl zja 74 9
sh cj 15 6
jrj tk 88 6
u hix 64 4
vsk zug 94 8
gc ilc 37 5
xrf rao 56 8
ldr cxl 39 3
rne wrt 34 3
hm em 29 7
abp fdj 32 3
fg blj 48 1
ekv ldr 24 6
wd jn 14 2
bpu rne 81 3
la sla 91 8
rk dj 97 4
hbj uv 55 9
xmr ei 73 9
gcu cl 61 5
vpv ep 67 4
rfj po 58 9
fl cb 39 6
mid xa 52 9
tn ami 71 3
rxb puz 63 4
wk pxu 94 6
kcl vom 54 5
pn tl 49 6
jnc bf 59 5
uv xm 40 1
tbr jlm 30 5
qh zsj 96 9
tom gjb 58 3
xlt gg 12 9
nkw vwx 72 9
kz atc 4 9
nuo pus 23 9
ta xz 81 8
tlg ev 4 9
bm ths 77 2
xp zug 25 9
qmw mjw 97 3
gcp ts 45 9
gjb li 3 7
dj gz 97 9
o rr 22 8
e tm 27 5
hi zdo 13 7
rlu bs 60 8
puc bs 5 2
c dsz 61 7
vq cc 99 1
kcl zb 41 9
im mb 77 1
uan zb 41 7
deq dom 59 3
xjw uvr 95 6
ub bo 92 1
rlu hkq 16 6
ri jzf 25 8
krn qts 92 3
kd hi 37 4
gss mvs 91 9
gbp djk 6 4
ri lg 54 1
pca qgs 58 2
zl hr 67 7
nrx ds 46 6
vhc xlk 24 2
fa ba 83 8
al fld 24 8
fa nuo 62 7
ch qn 84 2
cbo wkh 9 3
pij gn 18 5
hm kk 8 7
puc mxp 36 9
ks qrv 63 4
ei hgz 41 5
puz hbj 9 7
zgl ab 90 9
nrx ntn 82 3
i zb 27 3
kic lgo 40 8
tr xub 27 2
ob pzl 56 7
pij ntw 21 5
waq lxm 15 8
dsz oku 35 6
sn bcx 24 9
qmw pg 4 5
fec kfi 10 1
oku uxc 66 3
pxu qzc 86 1
vdz xlt 23 6
bs uk 50 1
rb qij 55 4
qt rj 72 4
pa nrx 22 5
djk gqo 59 6
we jjp 82 8
vpv rxb 60 3
dg hrl 34 4
ks kic 13 2
lon vn 94 3
cxl vqu 84 7
cgi ldr 16 6
bu rrc 58 3
nkw vom 97 1
vc jne 67 9
koc pc 9 7
af po 50 4
uwk wl 69 1
veq aoz 51 4
dlv weh 29 6
vz xb 99 9
ks vm 31 3
zv lsn 19 6
zf zdf 97 2
dq oo 94 9
vqg nms 10 3
pqo tc 15 5
lgo vm 39 6
kam cgi 87 6
nk ds 63 8
vna af 60 9
mxk rp 96 9
rao sgh 17 7
sjx kk 46 4
vlk up 47 5
hr bh 77 4
gav fx 44 9
dg tar 51 2
ust uep 35 7
bh vo 24 8
pf zug 72 1
epd nr 31 4
cbo mw 98 6
jrj sf 68 4
rn cbo 49 2
qt sgh 77 4
uk ubr 12 2
sri sts 12 3
uh ust 8 6
hf ueq 34 6
abp gdz 25 5
enu pca 16 9
iki cdv 12 7
oa fa 60 4
jzf ic 4 9
lfz dr 87 7
tvo kic 11 1
opb gfb 36 2
cb mh 2 3
wd mlk 91 8
pca uax 19 9
gjb st 57 5
egw pk 32 7
mfs pca 6 3
xk ot 52 5
iku al 68 8
sb zsj 86 9
xv qm 36 9
nkw jko 86 5
sjx khm 59 3
dvw pus 10 7
tcm fwv 83 1
mf bcx 4 8
ob jrj 60 2
cf jjp 99 5
sw bo 66 5
nk kbf 59 9
tf atc 57 4
ipd gl 11 9
ruh kfo 75 8
ekv bbj 76 6
dlv vqu 77 9
hr ft 52 7
bm fld 63 4
ta okx 5 6
uxc abf 48 6
pc rne 8 1
rlj clr 97 6
uvr rlu 69 6
lz ma 71 9
mk hg 66 6
xhe de 70 4
on jlm 73 2
vpv jko 82 8
vdb dvw 90 7
p rao 21 7
tuv zb 25 9
zug blj 63 1
deq w 3 5
hm sz 10 4
kcl msg 8 2
xz pbe 66 6
whs ufn 68 4
vo kom 10 9
ee t 56 1
tar rri 64 8
ms pp 1 3
flc fne 4 5
blj uo 96 7
ta nrx 49 2
xrf ec 71 3
zh jjp 86 7
qga ha 98 2
nrx gg 44 1
zjx jlm 72 9
vq ikj 16 2
uqc nea 65 1
tlu xmr 65 3
hix qga 87 9
rfj xai 86 6
gss rp 77 7
ba vns 41 3
sn xbw 14 9
mxg jrj 95 6
dm mk 69 5
bfo pqo 35 5
lgo ft 73 6
pvx mid 75 7
zh lon 82 8
buu vz 22 2
fwv mjz 14 3
ee st 33 2
mrq crt 26 3
lhl oku 15 3
gj unr 12 8
bhz tvo 48 9
zb mxg 91 7
kk fl 14 9
hix af 10 6
qpr wjd 21 5
kam quu 87 1
te ow 74 8
po uwg 67 8
ekj hug 73 3
irt gdz 63 6
oa ppi 10 4
ra bor 78 7
sg kt 36 4
ehb puz 19 2
lq i 19 4
hb ez 76 7
cj mrq 99 1
bii zn 79 6
cnk cn 10 5
vqg ruh 42 8
ds pjl 70 2
mh qij 10 7
zwv sjx 18 9
zoq bbj 69 6
nea k 88 2
enu cq 78 6
nr deq 26 9
rh dpo 39 5
hba pxu 41 9
m ic 58 9
hf eqv 69 2
l aat 17 6
lnw xxp 76 5
jlx mk 27 6
pdq wg 76 7
be lsz 21 5
ldr qc 75 9
tb xd 14 6
jug zug 78 3
r nh 30 8
eu qhx 3 3
nxv tl 26 9
c wgd 46 2
g kgp 26 9
ap uwn 56 5
koc ab 98 1
sjx oe 10 3
iku jo 96 4
ss ikj 62 8
on tdb 17 1
hcc vpv 49 8
nhd pxu 34 1
bix vq 35 7
nuv bf 64 2
bcx xk 67 8
aoz unr 73 5
mws lz 21 4
pc amc 19 6
do koc 62 3
deq rfj 85 4
nun tom 35 8
gtr nhd 81 4
uxc rk 9 2
vo ef 78 9
hm go 43 5
jn gtr 21 9
ae pus 79 8
mn bhz 5 4
u gn 5 8
vz uwk 84 3
nh uan 19 5
ap jfz 98 1
gb hrl 85 2
zsj rai 86 3
xk tbr 67 6
egw dj 36 5
uax aqs 44 1
xnh ami 60 8
wi nun 90 5
urw vns 94 7
qkq cc 96 7
amc rkk 77 6
fld t 23 7
gwo tg 38 4
pbe lg 8 7
uh uep 28 5
zq ez 27 6
ueq puc 19 5
zja zjx 67 3
mg wrt 83 7
ch oe 19 8
mg xjw 40 5
be hkq 95 4
qzc vdb 82 7
ke de 91 3
gbo ot 5 8
xo ss 24 1
rue gj 11 5
gn dsz 62 2
tcm tid 28 4
