oi bjk 20 9
c dz 62 2
ul mx 85 9
elu hnw 9 5
oz oqr 46 6
ib vw 83 9
ifs sh 96 3
zgt td 86 8
ivh mfo 24 6
tnn tuq 65 1
wia sgv 90 1
niv cv 58 3
vq au 80 1
fnm xcl 50 6
lx ws 19 1
afa ab 67 3
fxk iis 97 8
bl gxq 41 4
god ze 72 7
zkc lj 87 9
feh mfb 5 7
mv gpq 42 8
rf ugl 19 9
w wp 13 2
xn do 46 8
nte qvx 68 8
lvw xp 25 2
los nw 79 4
zl fg 30 9
vj xnz 34 8
haz dtq 27 2
rto wdd 29 5
dxj pai 59 4
jq hs 7 8
lnd wsm 57 5
zgt gd 69 9
hl afa 95 9
bhv ge 67 5
mfo zzq 43 4
jh of 10 3
qe xp 79 4
xb lu 20 2
tzc cod 34 5
cbv ijq 24 5
jav hg 97 8
wsm pv 54 3
zpk thf 55 6
xwm dgb 6 2
ft jq 56 9
fqi jb 93 2
sx maw 6 6
eon dtq 36 1
koi xub 60 2
ig qjk 85 5
bi kd 98 6
xm pe 24 2
b uwh 76 3
zs deh 28 8
qqo lrj 45 6
aq vo 7 6
elb pr 64 1
jh eon 49 8
lae htv 3 9
jsj br 61 9
usx kit 65 1
sz dwq 78 4
ozf tq 4 3
kbc nc 47 8
mhz gp 18 3
owc pxz 45 4
cck gjs 60 7
le fss 26 7
fxk uhf 50 4
vtl dxe 64 8
js db 83 5
dlw zlg 15 3
wsz zrg 26 1
ak mov 22 3
bwn dba 34 4
cv lm 52 3
iv gg 90 2
era gol 41 6
ezn tq 60 4
ias rza 44 3
doh tuq 88 6
sd eth 8 2
gea mn 99 1
xpv jup 96 7
tjj ni 13 2
lt wdd 76 5
no smj 61 8
mzz goh 60 9
gwq xap 13 7
nm fw 43 1
ezo rg 6 2
pp eau 66 3
qxx gd 89 5
mpe tq 92 1
eed plb 22 9
tvs lt 4 7
pi fpr 58 8
ur dgd 91 6
lrx gg 76 2
nd fnm 57 8
fbf owc 93 6
klx qe 19 2
go zu 58 6
sg jv 87 4
cbi wt 50 9
lrj thl 93 8
rg mq 33 3
bf vko 36 1
lnd h 40 3
gx fbf 52 8
sv oo 40 9
qju zgk 58 5
los k 18 4
ord orz 34 4
xu cod 34 6
xae t 70 4
jjl pw 34 9
am xfr 90 3
qvx zc 33 7
tzc t 77 1
oo fqg 30 3
nw avo 61 5
zd hhz 53 7
sgc b 71 4
rtv fxu 6 6
fzm rv 67 2
cdj pv 69 9
ozf fs 90 9
bup zh 20 5
sd aoe 31 4
osg vw 91 3
ze flw 3 2
ws unu 1 4
bn uz 21 8
pvb jq 72 4
xdb jq 9 2
or uz 56 5
xfr cck 60 9
b wuv 45 9
a ex 56 1
cbv mfb 72 7
vek ct 84 4
mu g 59 5
twq gfz 33 2
dxe fro 64 3
cdj dtq 41 6
cbs flw 41 2
zof ord 65 6
xnz vs 66 5
ar gzm 85 3
ac ix 9 5
vd lzx 5 3
kca wc 34 1
xho zl 66 3
vko vus 90 4
mzz kr 30 7
s xm 3 1
dpt fu 19 9
zv ezz 8 6
nqf gfz 86 2
llh gjs 98 9
ixm dd 12 5
gq ehl 52 6
kbc ix 16 1
ud ch 65 9
llh qpl 58 5
heu dz 38 6
sp flw 54 6
rm nl 75 1
svd hls 13 7
cdj db 25 2
pem no 22 5
ujk mkk 85 6
jhb mt 74 4
mhz ur 71 9
dgb nw 63 2
itk vor 88 4
xc cdh 25 7
b e 94 3
oh tl 17 3
rlk cen 99 4
pp ibl 59 6
jh bmk 88 4
sm aea 33 3
fbf nte 61 1
cqc xho 36 7
om wh 80 2
rgu emt 61 1
li wip 44 5
nw wt 5 6
ol qf 86 7
al ue 60 8
ehl lx 59 2
qcd g 95 6
qou zrh 20 9
cbx nz 15 1
djc koi 58 2
uf oqr 20 7
gp kr 51 2
dpt t 27 2
vth phz 78 5
t nvq 64 6
su zpk 55 9
jeg nr 60 5
a wqd 92 7
xdb hlu 18 2
juh itk 46 2
ujz bf 48 1
ij c 8 2
xc hhz 78 5
zl nw 48 2
dec ju 28 5
dmc cdh 11 2
blz ak 46 6
sj ch 61 7
rud qf 60 9
wt cqc 14 6
kbc dmc 30 6
zkl uk 70 8
ck xb 83 1
nkw ju 63 8
fp bk 67 2
hjq eed 47 1
rl rud 59 1
ta b 31 4
uf jsj 4 9
flw ab 61 5
htv rto 53 3
sx ue 47 4
wm ord 60 6
goh fpr 9 6
qj gfz 78 9
utk pr 4 2
xe zzq 82 8
lrj ik 60 7
sf hpo 16 6
mja vfe 89 2
kca gxq 3 5
mdm fnm 76 2
ah cen 28 5
ezz ak 23 7
nd hu 80 4
fek pwu 77 9
nxt bup 74 6
np tjj 7 3
mkk xcv 53 7
ibl tiz 99 6
qvx utc 92 2
gxq rza 45 1
zi lxu 1 5
cdh ahn 25 4
wia v 94 7
pv dz 97 4
itk gzb 52 8
vth deh 8 1
hj xcv 5 4
rar fss 20 1
qpl eld 8 2
ri va 58 7
am ss 5 2
lrj nqf 20 1
uwh fdg 45 2
gzm xho 50 2
fqb dl 78 6
roq smj 3 8
kx oun 92 5
ue nb 69 1
lh tbg 63 3
zrh exd 58 4
zgk il 89 7
dba pi 56 8
ezn htv 40 2
rod ns 88 7
llh ggo 31 5
djc m 91 6
apk jjl 62 2
uf cvc 39 6
uz xho 28 5
juh hoj 4 5
vn zh 4 8
ia lnd 91 3
thl aa 70 2
oxz dd 16 5
oa kjf 4 2
udz dmc 41 9
uk rz 57 1
rw qou 16 7
xap fg 27 9
tpg qou 29 2
li pz 80 9
uhf xxq 9 3
fkq lvw 53 6
rl djc 24 8
wmp b 23 8
kbc ew 91 9
fg xae 34 8
z mkk 78 8
wh boi 83 4
nxt lt 13 6
ujk npe 10 6
hu wp 7 3
rl re 83 8
avo dik 9 6
gt zrg 42 6
nm qax 96 6
pe wip 10 4
rh cmz 39 3
fm so 52 2
vn sf 24 1
sd sn 96 9
wmp dlw 59 1
aoe ujz 85 5
jz mdo 44 3
dtq ld 9 3
ta hs 77 8
hmf cmw 27 4
voi rl 20 4
zp soh 1 4
vth g 86 4
uu eth 71 2
wsm oh 93 4
plb sz 27 4
iis ujz 98 8
vck mo 13 9
hi tbg 57 8
sd god 20 4
gxq g 91 8
uz uhf 4 4
utk ixm 76 7
lj mfo 36 8
tzc ohb 41 6
utk vd 38 3
ezn ol 37 5
ru hlz 67 8
p mja 41 8
cen hmf 53 2
sgv xn 36 3
mes qam 29 3
tzc dtc 5 4
djj hpo 76 3
fnf mdm 17 2
ivh oc 53 6
haz khg 23 3
wip rd 29 6
ogb oi 17 3
qb ibl 63 3
lw xc 15 8
np lfk 92 2
iv ruu 94 1
oe dwq 65 1
rpu vx 25 9
zkl tdr 19 3
ulr axr 90 9
kk dw 8 1
flw bl 42 5
gfz kca 86 3
xzk ijq 44 3
r oz 26 8
rlk cdh 4 5
ggo pb 32 9
svd z 59 9
rod pr 33 6
r vko 60 2
vlr nv 28 3
tnj m 79 3
elb lq 62 8
wuv vs 57 3
eje eon 70 3
jpo vfm 76 4
lae ugl 11 6
kk wm 24 1
ia xnj 57 3
sp ijq 85 2
mv pvb 22 5
xn fpr 22 8
rhg su 40 8
xv bwn 97 4
ap np 21 9
svd xpv 35 3
krg mhz 40 9
gp owc 66 8
nte wlu 64 4
koi ezo 24 3
nqf cen 97 1
mhp bnv 97 9
dlw fqi 77 1
i mq 48 7
u rza 8 6
wh ac 67 6
mu gf 49 8
tiz gt 32 4
afa cbv 11 2
ias in 37 2
no ezo 79 6
ogb tnj 5 1
ig dtq 53 3
vhj hpo 21 1
pe koi 79 1
vor gg 83 8
doh oun 71 6
gi dl 71 8
klx tzc 48 9
mkk uhf 3 3
ww mja 11 9
rpu ezo 4 6
ss oun 40 9
ij xcl 55 3
id fw 12 1
dvs cmw 41 8
bm zkq 77 1
gzn cur 64 2
ju mlm 31 9
jup go 44 2
wsm cbv 58 1
o jde 32 9
xes nb 4 4
xam nd 71 8
mt dec 37 4
hbt vor 52 2
eln zi 46 5
ibl god 29 7
ptk cna 6 9
wp gq 29 8
sqm tq 84 7
mde wip 4 4
rz iq 73 7
sz twq 79 2
xm feh 30 3
ugl eld 34 5
ss xq 12 8
ab xe 11 3
qvx am 48 7
af mn 95 2
li h 31 1
nlf lfk 37 8
zc nm 24 9
no maw 96 6
xe buf 86 3
voi sh 15 8
x dgb 80 5
ri tl 69 9
eeu wsm 7 2
bn nn 5 1
wuv sx 33 5
gol iis 84 6
tdr zh 98 7
af ahq 62 6
vor ij 18 3
mhx a 64 3
oc sgv 17 4
evp heu 87 3
sv ttj 2 9
eos lm 97 2
hnw jdw 33 1
god vus 32 5
dgb rar 30 9
xc pwd 48 9
fqi ahq 62 8
qcd fqi 40 9
pi zkq 80 5
qpl ajf 73 7
ij fnf 23 5
uf tlx 93 1
gzm gea 97 5
uk mnn 43 2
ggo ifs 99 1
oh wek 29 9
ha fg 22 1
lh kxx 89 6
qxx hj 39 8
owc nz 25 3
tkl gh 68 2
ohb sk 64 9
rpu vus 70 9
rrd lja 32 2
wlu hhz 16 6
sf nj 42 2
eed ac 12 4
rum aoe 21 4
tp tmt 61 9
ptk gol 73 5
tzc wv 45 3
spb zfu 3 3
feh rgu 53 9
vn fxu 7 9
rza ld 59 4
rdj tlx 45 1
ia mde 84 5
xzk fa 10 4
sx zc 73 6
i fqb 41 2
tki li 55 1
kr vtl 58 8
ia izp 70 1
bhv wp 61 1
qam t 51 3
lrx fqg 78 4
goh iv 69 4
tlx gjs 89 2
ktx kk 44 6
amt lrj 15 6
gm eth 19 4
llh kbc 81 7
lrj qju 27 6
xcl hcq 89 9
bmk oqr 80 3
elu jup 19 5
vko g 93 5
oj vmq 93 9
mo qjk 20 3
elt mkk 9 9
pb vm 41 6
do qj 63 8
ov mt 42 4
lae wc 90 6
ov rud 21 2
osg fbf 99 8
fg ohb 13 5
nj dtq 87 9
thf nte 16 6
gea pei 96 5
wok vn 88 8
jh bkl 84 9
vbt nj 97 7
bv ugl 76 2
aa jp 73 2
ht ods 78 7
uh tnj 51 2
xp orr 96 7
e tx 33 9
tjj js 74 7
tck plb 28 6
vtl ggo 10 3
hha ah 97 5
tmt vd 44 3
nlf fqb 15 7
cm mnn 97 9
xk go 1 6
ugl u 92 6
ujz vor 11 6
utc ht 50 3
ue cgp 91 2
haz thl 2 6
qqo zp 39 6
zfu cv 99 3
qqn hnw 58 2
zwa fro 49 3
jhb htv 83 9
xap au 48 7
vtl db 46 6
vlr rpu 58 1
rgj klx 13 8
thf isj 83 9
s spb 39 6
bhv uhf 56 8
hl izp 73 4
fg ibb 59 3
xho rdj 65 5
xw ik 37 7
mzz utk 87 9
elu aq 92 8
lnd fg 41 3
mm mg 30 2
jq dmc 12 3
ujk cqc 82 4
tp eth 83 6
heu lx 47 3
ohd oc 34 8
ji vus 30 3
lzx xub 98 5
lu twq 15 2
zkq xm 87 5
mpe rqp 77 4
cde lae 37 1
usx zkc 32 1
e afa 95 4
xen cod 97 5
qjk cm 3 6
gzn xxq 22 6
htv dvu 98 3
gol exd 74 4
unt kxx 32 1
ar djc 64 1
npe kjf 8 7
wmp rto 63 3
qqo qqn 18 1
kgd nus 1 3
oe ev 15 6
vm eje 77 2
go lge 49 8
qxx qvx 6 5
ll qqo 70 4
rgu fnf 86 9
aw mt 33 8
pk go 40 1
pw vck 21 6
zs nn 91 7
rlk owc 70 1
tnn pfa 13 5
eos zpb 56 3
or unu 48 6
ex zl 54 8
h rgj 18 4
ohd niv 44 2
gq oun 8 1
rrd xn 87 4
rw zdj 93 2
thf rdj 97 3
ozf kwn 13 9
rar fbf 61 6
gjs sp 56 8
xw cna 31 8
djj xdb 21 4
xj uw 5 6
bit cde 58 4
xho dxj 7 9
xu usx 67 2
gon dw 72 7
rza eon 44 1
tuq ts 55 2
mdm eth 98 8
ar gx 60 8
jde sqm 71 7
ec zfu 55 5
bn tnh 69 1
gon tkl 84 5
vc tkl 27 3
bnv tp 17 5
rh dxe 38 8
sk qe 54 5
mx roq 8 7
ggo orz 94 6
fw bup 80 4
ah ge 23 2
bs ni 11 5
tdr blz 75 3
ezz tck 21 4
cdh h 5 8
vx rg 77 4
rg ha 38 3
eos ec 91 7
ef fnm 33 7
ibu nvg 11 3
vor pb 78 4
cna nxt 11 6
wia koi 69 3
lw eje 7 9
jv ezz 47 8
wp qqo 77 3
rqp vfe 56 2
hs niv 4 2
nvq twq 86 2
pk oe 36 3
n ig 65 5
mdm jhb 31 3
ru no 27 2
ber pwu 37 5
zv sji 47 3
cvc oxz 14 6
pac lge 25 2
gsc gi 15 9
pxp nlf 62 6
eth hi 81 2
qb vq 43 2
gzm ktx 17 1
n rqp 98 4
ss nf 96 1
o ld 87 5
ja jh 89 5
umw mpi 67 9
ohd lm 54 5
tnh era 17 5
gd v 15 4
dtc cna 19 3
fqi unu 89 2
tuq jav 97 2
iz xae 47 5
pmk qpl 37 7
rhg bm 37 3
mq haz 48 1
hjq iv 45 5
qb go 66 2
ib rrd 76 3
sf rw 43 2
qa goh 16 7
rq izp 33 6
cur tp 52 5
unu lrx 58 6
svd mug 99 5
eeu rv 65 9
lrj sj 17 9
spb mkk 37 9
vj ze 33 4
ia jz 8 6
sqm aq 67 5
cvc fnm 84 9
