pj kg 54 8
rs xf 24 9
jw ce 59 5
ni tp 53 4
kv hb 82 7
ac ab 26 4
ll an 82 4
av tf 99 1
aa ge 29 5
hw de 43 1
ho zc 3 9
hu dh 29 6
ze rm 32 6
cv xd 79 3
hx n 55 2
jt rs 59 9
to ak 75 2
ef ja 40 8
wf eg 49 4
zl cz 55 2
wp sh 2 5
dv ni 64 1
rd vt 87 6
ne gz 71 4
qk ez 11 4
oc ap 45 5
nx jm 36 7
ub hp 45 2
tr o 60 1
ru qx 32 5
sb pe 58 4
hp pp 11 1
kf vx 57 4
ar cq 26 5
dh xb 38 2
nz kk 71 4
ub tk 65 7
qd in 93 1
or zi 70 1
ej a 24 3
qr pk 56 6
xw zu 60 1
nm ci 71 3
nt zm 79 6
hk va 7 4
uo ra 62 9
lf dl 6 3
ja wo 7 1
kk pa 75 2
pr qr 52 6
gb pu 77 9
hx n 96 2
qg kv 43 9
ah fu 69 6
ga m 30 6
wz kk 97 3
ne nl 26 8
cw ci 13 9
fk os 53 5
fi rw 72 2
if rr 83 2
pp ve 54 8
n pb 17 9
fz rc 68 5
gz jw 53 3
hf ep 99 7
va ir 73 1
ps rj 8 3
nu hg 19 3
fr bh 50 3
pk it 65 8
ja zf 90 6
le km 99 3
gh fv 37 5
cl qz 96 5
pp qk 27 8
qu mj 85 4
t ke 17 5
js po 13 1
vr sq 14 9
km mx 65 9
dd ta 34 9
ax ms 93 7
kj ei 51 5
gt dj 18 4
zq hm 15 5
mi uf 84 5
ud en 74 5
gh kb 92 9
xh ct 95 3
xm vs 1 4
mi qf 58 2
in th 53 1
kr pw 40 9
og ac 46 5
rl jv 12 1
hx pt 50 3
ds mt 68 6
zu tq 75 4
pu kq 90 5
hl ar 66 9
cg pw 96 4
va at 96 6
og dk 30 3
sq sq 56 2
uk qz 47 2
jo mq 77 6
bj af 85 8
wo wj 55 6
ur wt 7 4
vu hl 30 9
ks dz 36 9
ta dc 16 1
pp hx 95 9
mn te 74 3
wp zc 61 1
mn uu 20 2
xt ke 7 5
uw vr 36 7
oo kp 11 2
rc ap 28 2
xc xx 23 3
ix hu 20 8
st dk 1 1
pa xx 70 7
km mq 48 7
tg jl 5 3
sx hn 54 6
tz mi 50 7
ks ia 15 6
ti kn 53 8
s tl 10 5
sa ns 97 9
wt mh 76 3
sz jp 84 7
ec mn 49 3
pv wj 41 4
gk nt 18 9
vp ef 3 8
og fg 33 8
gh m 66 7
dm jo 97 4
r rl 58 1
wj cv 21 3
th eg 68 3
aq cm 33 8
en fx 79 6
gb ui 15 9
ca pz 79 3
ud ia 72 2
kq mm 21 3
or kz 2 8
mh ge 85 2
ns tp 64 4
zo rd 34 2
js sz 62 8
ti qg 56 9
l wf 96 8
im hn 81 1
vv az 10 6
hx gi 15 2
dq fh 84 6
zf kj 24 1
gp dm 48 5
ee hw 36 6
xk nv 51 4
fh e 32 4
di gc 20 1
pg zm 36 2
kr v 28 7
ul pm 42 8
rr on 16 4
ru kp 16 1
rh lv 12 6
ag o 57 1
pn mi 14 7
iu pd 17 5
zn qf 90 7
xf jv 28 8
dr m 98 3
dl zi 43 4
hr uz 2 1
sn cv 81 9
kr lb 9 3
hw aj 60 2
xq pr 11 4
ct bx 93 3
ci nq 28 7
pq lp 7 6
cq wn 73 1
dj uw 35 9
ks dj 77 3
cn aj 40 9
xp tx 36 1
ss mv 23 7
kj rx 74 2
br rw 46 7
jm kn 10 9
ta ms 18 4
bg sz 95 6
t rx 92 4
uu hk 77 9
qf ov 96 4
me xq 93 1
uw ra 14 2
km ne 64 3
ne ob 33 1
oi xg 21 6
pw qj 46 6
tz ng 84 3
ne ds 32 2
ia nj 20 9
bg im 90 1
sn zz 28 2
dd dp 48 5
qr zh 30 5
ga oq 41 5
qj zq 22 6
ha mm 69 1
jg f 75 9
zj vw 15 2
ms vu 72 9
lv ul 31 9
gz tz 14 8
iu q 5 5
af ve 73 6
q da 1 1
qe ll 7 3
dk nh 90 1
jg cp 60 3
pg mt 42 3
iu ez 80 2
nb lk 82 6
np uf 72 9
zb hs 25 8
t vn 3 4
ut kp 86 7
ho ct 31 5
ix cz 36 1
ug tp 23 7
bx av 31 6
tf mq 55 9
fg ur 31 2
ec m 9 3
if dm 82 3
rc ab 57 9
rr cj 15 7
ti xp 17 6
ps qz 30 3
bj uh 92 9
no mk 5 6
nt sp 17 4
wj fp 30 6
xr ds 99 1
iw oi 38 1
fl ed 96 7
lm lv 96 4
tk lp 32 3
ow cx 6 8
sp b 99 7
vg nl 55 5
jd en 69 4
lx wg 32 1
sx li 11 6
kg mk 72 6
rl co 94 3
pu dn 7 5
rn vw 28 1
kb zw 55 6
nh jp 9 4
mh th 70 5
rs dj 98 8
ru dv 67 5
mb tj 88 1
bp wl 46 3
pd il 92 5
zf va 40 4
gb hk 16 6
oo bc 20 9
nq oh 93 6
ca bk 82 3
st xh 50 7
mn if 56 9
sp ox 21 6
uj uo 66 3
cb nv 33 5
zp ns 13 8
tr ob 67 4
ds w 74 4
hd vr 77 9
pu dh 76 1
br zo 90 8
lk la 83 9
ex tr 25 2
fq ud 49 7
mi wj 18 8
ca iw 83 3
xf sq 11 6
zh nm 77 9
vn hr 76 9
jg po 85 4
oh ao 19 9
mi pn 23 6
dm hn 8 9
nf pw 34 6
wz pf 73 2
lt m 78 7
qo h 84 1
nx im 58 7
if cn 21 8
lw jv 62 1
km it 29 2
jl ww 17 3
nr dw 32 2
ne dp 92 6
ga pe 66 4
uj ki 61 1
xf di 42 6
sm th 41 4
nf va 61 4
jp dc 68 3
bq tg 89 6
kq hw 4 5
bj n 63 5
xc sa 43 5
cz ow 33 8
ce oj 83 8
ei uv 59 3
aj hi 76 6
fp jv 15 3
mj zr 29 8
oc dv 48 6
vs x 60 2
lk xw 86 3
dn tj 60 4
bs xp 68 8
bf qx 64 8
vu xz 74 7
cq hg 34 9
st gc 80 1
wl hh 99 1
ov au 15 2
vr c 51 2
tq ng 97 6
cx if 26 4
va ra 14 1
sn ui 77 9
mi cr 88 9
ng or 21 7
vp wz 3 3
ax ks 57 5
zu v 93 4
bg dd 78 9
rr ju 24 6
qa hp 59 4
dv ni 12 9
hz lk 65 4
s br 76 7
lm qe 11 8
if rs 53 3
ki iu 73 3
oo qu 57 5
m fl 93 8
mk qf 41 6
dr dm 77 1
ar an 13 5
vx ef 35 5
nf jf 76 7
mg fm 32 8
vp dw 55 6
mf lk 86 7
zl zj 95 8
hr nh 62 9
dm sp 34 5
gz cn 84 8
nf uo 41 1
tr pt 48 1
il rk 60 4
pp vp 30 7
vo gt 62 3
dq cj 45 9
if s 34 5
uu lf 74 9
ol uw 89 3
uh ao 49 7
h bh 24 6
iu ha 22 4
ih br 73 9
fe xt 37 4
wp pn 68 7
sq en 49 2
fu ox 97 8
ed xg 82 8
kw ss 15 6
s zb 19 2
k z 81 2
mq bf 82 9
zv ka 84 6
xq ut 95 7
zu za 17 7
bc ab 53 6
tq mu 3 9
cb dv 18 1
ak gc 85 3
ow on 51 8
pr ab 82 1
jv sn 96 7
aw oi 94 9
wg wp 45 5
go zh 78 5
km gb 40 9
ds ec 72 2
pd gu 1 3
jl xp 12 5
hp cw 28 5
zq xa 24 9
xa vv 72 4
bj xx 46 5
xh hr 29 4
ib js 28 8
pt dd 71 1
js oz 2 6
sz rl 81 9
xd eq 10 1
pa qo 74 6
ow cf 17 1
oi rl 22 5
hg hk 81 9
j mm 16 5
tl aa 21 7
me xa 12 9
hr kw 98 2
nj ul 9 2
xe dr 85 3
ql dc 68 4
qx ak 61 7
oj nz 42 6
pp ow 74 8
mm os 5 9
zm vf 16 2
rm at 30 1
ha pf 76 9
uj gd 55 9
xh p 91 6
gc c 59 2
gv qj 60 6
mo jv 27 4
dc ih 97 5
nh cg 17 2
mh n 65 2
wf fk 9 2
fb bc 71 1
lh hh 24 1
fg vr 35 5
ss hw 11 9
lp bh 82 9
k jb 43 8
ru tl 78 5
wr v 93 6
zj jq 90 6
kf ft 60 7
ac bz 44 1
de pq 98 8
ce vu 80 1
cg fq 3 8
kk xl 34 9
uh gh 27 5
mo mp 85 1
ft gf 50 1
jw aq 39 7
zo un 74 6
ig sa 81 1
zu sj 39 3
jr zl 78 8
m fs 59 5
hg ke 97 6
uv az 71 3
jv jp 81 7
zc jf 3 2
vs jm 21 1
mx cm 34 8
fs ef 16 5
ie la 92 5
fr qh 73 6
dk nj 37 4
sz ig 79 4
bb bd 77 3
bs ct 44 3
ow hx 34 8
jw tr 21 3
eq au 50 4
ix e 76 8
zv lk 13 9
ps zq 98 6
gh zb 16 9
bs c 17 2
sn mx 17 6
ks ej 19 1
qe pf 24 9
xk li 65 3
