gr ap 70 2
ema srm 94 6
li lp 69 7
vi iz 86 2
utc fqf 36 5
lv xt 54 1
xlb kxd 32 2
hb kj 74 5
hb ezx 9 6
inc utc 80 3
hi hzv 51 9
pdj ux 15 3
sz sl 53 4
u d 23 4
zm wdd 2 6
dzs swt 8 2
vvh ivt 41 2
va wo 15 2
nz hu 32 4
vac puw 68 1
sv naw 12 9
oqq kw 5 2
lto jv 69 1
ux foa 51 1
bko nsh 27 2
iqe ma 63 2
wa qap 4 6
xvm pv 13 1
ush ztx 25 5
n hi 26 7
hdr gr 26 5
cq rhs 13 3
aqt xc 91 9
ao ndl 63 6
c akp 23 9
tjk bxd 35 4
fjt cxs 31 7
mkk rii 27 9
qqh dc 82 2
nci ue 21 2
iqe ivt 8 8
ns he 96 8
xp mw 91 9
vsi hhd 16 4
ext m 23 2
uh xt 76 6
tnq cig 52 6
pdj oqq 79 3
hu ka 32 3
ju frc 58 9
fdb utc 27 8
msc hjw 13 5
kd qs 61 8
cvc cl 88 7
qr ie 21 8
bq bo 44 4
hiq mkk 98 8
bi ad 38 9
sz wpa 50 8
qw vx 84 2
qs uf 19 3
kj uq 6 9
lvl ddd 58 1
nbr rk 27 4
rl vvh 37 2
c ak 20 7
zdg fd 12 2
hl ps 23 6
cvc dl 56 3
odu uvz 53 1
hsw wu 14 8
oio s 68 6
aiz ns 89 5
wco giu 56 6
mmn ds 60 7
hfl rlt 74 9
gad tv 95 4
foa ttw 74 1
omf pkm 71 6
ift mir 42 9
p we 73 4
taw nsh 67 5
ie boh 16 8
nz nbk 66 6
oh gsh 74 9
hzv sb 36 8
vz jf 68 7
xvm hi 99 7
sxi ew 6 8
ew atf 68 6
qn dc 53 4
jh xp 90 9
sqg mx 55 8
mk ud 16 1
pji dnw 74 5
ew wco 89 3
ndg i 34 5
zpw mkk 57 9
khd qh 82 9
pk qh 33 4
fjt e 39 7
zm ptg 14 4
kec we 26 9
fqf jf 17 3
pga iu 49 3
ad dej 63 3
nj ja 10 8
db qv 78 6
lwo vu 59 5
wu pga 97 4
dj bus 9 3
ja njq 55 6
tkg hfl 91 5
tkg zlv 12 7
dok a 4 2
lec w 12 3
cvc mz 55 6
imp etj 47 5
jum vvb 57 9
eh cm 29 5
lec ff 79 8
jhv zmo 74 3
xb qf 12 8
ev afl 69 1
ma wm 61 6
hdr c 69 1
sjg chr 65 3
aps dj 7 3
qv tx 95 5
p cz 52 5
skv qqo 91 3
am nwb 62 8
cti dj 47 7
rw wlh 28 2
ma qsb 98 2
atf chr 8 3
iz aol 2 7
lh min 68 5
uwe chr 52 9
wdd jv 19 1
hu gop 82 1
pz pw 8 1
nz mir 45 4
xug jh 7 5
avg aq 81 8
ovd kh 8 5
nwb xlb 78 3
du vu 52 8
lx ool 10 6
ffq we 66 7
cig khd 92 7
ur hu 87 8
tq i 35 5
bso dos 99 3
gnm ti 57 3
qs jlk 65 1
no uf 98 3
igz jf 28 6
msc khd 61 7
pk chr 75 4
aep xp 45 9
vsv imp 7 8
tv p 37 9
kxd nz 95 2
e m 89 9
nb k 51 3
wxl wm 58 2
shi wxl 85 5
nwb weq 69 6
tnn otg 68 2
rii wpa 31 3
zkf cxs 12 6
aqt cx 29 2
uwe w 75 2
zc zpw 8 3
eol f 80 2
cr pup 25 3
bwt fs 29 2
gbb jh 6 6
lzp jh 83 4
oio jum 87 3
dst swt 70 1
atf smk 60 5
iae mir 64 6
px gnm 7 2
vu hi 23 7
qsb boh 94 1
lwo t 72 7
rla ao 16 8
cgk oio 6 7
r dio 1 4
as ush 73 9
bic ic 37 1
boh vp 67 3
h fqf 81 6
uw ndg 69 5
vp gnm 26 4
nse eej 52 3
zdg fjt 45 8
wpa dwq 84 9
hjw crh 40 5
td a 91 5
we bo 44 6
qap pdj 32 3
vvh dok 54 3
bo aol 15 8
ac nnz 88 8
nse xz 32 8
wco lr 50 8
h uv 41 1
rni es 11 3
hfl mz 68 7
nf fph 13 9
zmo gr 27 7
dwq rs 48 1
hi emn 95 1
opn qd 54 1
tn rgk 75 6
pk cio 97 3
lr dnw 32 1
jbu gr 3 2
he wrd 7 8
dio rs 51 4
th zvo 20 2
wte fs 85 1
ad sq 14 6
uu imz 79 2
mfp fbj 91 5
nbr ezx 65 3
cr etj 92 8
eoc min 77 5
giu is 53 7
xnw w 21 7
lv uxl 35 9
nwp dej 51 3
mfp qqj 99 1
db eh 3 9
hsw cti 50 3
rla qqh 61 5
vu wd 70 3
zvo dej 39 4
ue tjk 3 3
ff mmn 26 7
omq zqc 9 7
xz afq 99 7
sq aol 50 6
qqj fh 38 4
xug th 68 2
xel db 46 2
ckd hjw 7 8
em zm 89 5
weq ckd 46 8
cz eej 86 8
khd hl 15 5
wh vsi 69 6
nf pkm 69 2
ti we 15 2
pfc boh 11 3
pga tva 97 5
xol hu 90 5
px crh 13 8
ndl oo 99 8
bwt nci 13 2
mk pkm 42 5
tt ps 88 7
dnw boh 63 2
wh wt 31 5
lc get 43 1
dnw hdr 20 9
vsv q 26 2
lr uv 82 2
vp bif 6 1
s po 34 6
emn hi 13 7
ri xmd 14 4
fbj nci 61 1
dqp um 30 7
bo uu 68 3
ddd cod 75 8
kxd iz 48 3
qqh tnn 6 6
ztx to 79 6
mo xp 47 8
dz cvc 70 5
gr cvc 65 9
ema td 44 1
ds ud 93 5
dc ki 35 7
ur nj 69 9
cig ri 47 5
tzh aep 7 4
cgk cz 36 7
pkm sb 55 9
wxl vi 72 1
bus dwq 50 8
jdd bi 41 1
afl dzs 4 5
i cod 24 9
vvh giu 15 9
ift bif 85 5
tnz zkf 8 4
bk jcx 66 5
lc crh 8 7
lbd aqt 71 5
hjw dwq 10 2
ljq p 83 7
bq uw 83 9
ri cio 94 2
aiz oh 3 4
zt bwt 55 4
ovd akp 35 9
weq uv 88 8
kd shi 44 6
jdd sxi 25 2
smk sv 19 2
sqp hdr 99 7
e mo 4 2
aiz wjn 59 3
huc bko 54 3
imz qxm 57 1
pup ema 87 8
vi mkk 38 4
j dh 76 3
nbk fh 88 7
vac omj 34 7
sq as 28 6
za eh 6 9
cio aiz 46 4
akg qot 85 5
tnn qsb 69 1
qnm no 63 8
po zqc 84 8
bus mfp 1 7
ag rpu 55 4
ljq cig 37 4
pv lwp 48 8
xlb xnw 95 2
hu cti 83 1
omq sl 62 3
mx il 62 2
hhd xp 34 5
foa lxs 68 4
sl crh 48 6
bc ak 22 9
ift aa 3 8
rt xvm 6 4
zpw mtj 5 9
nnz ub 38 3
mel lwp 96 7
tq ool 18 5
weq aq 31 4
ao mk 95 9
fqg usa 47 6
puw rl 35 3
mtj wtw 75 2
njq bc 83 7
va bc 19 9
lwo cr 67 4
oi vtc 7 1
ri kec 45 3
hhd sl 17 1
he ao 63 1
gvi pi 65 5
bko wte 99 8
wtt iz 21 1
as pfc 89 1
dl mel 9 1
lr atf 51 5
xel jf 90 2
oi cr 2 1
w nsh 15 8
ttw wte 81 2
kb lc 82 5
qh aep 86 5
lr mir 21 8
qh fjt 76 7
dnc xvm 60 8
vx d 77 8
sl f 2 5
nzq oj 87 9
sv wu 75 3
iqt ezx 73 3
usa ljq 81 4
qxm id 45 5
gr iz 90 3
aiz akp 94 3
sjg njq 45 9
zwh dz 14 8
ezx omj 57 3
xp tzh 86 9
es gbb 1 7
zwh dc 3 3
qs boe 71 6
um cod 48 1
crh ttw 36 7
uu fph 93 7
eoc rt 15 4
s x 67 4
io r 36 9
ap pdj 90 1
rgk ak 60 4
ic sl 60 8
ff e 1 2
tv dqp 49 2
lwr no 99 6
tn xvm 70 6
ckd aep 5 3
iae eol 77 7
jbt jbt 65 9
tlh wtw 99 2
lo tv 51 3
fjt pup 95 5
pk n 63 7
hiq aiz 26 6
he to 70 4
atf em 86 9
tjk tx 94 8
tq zi 81 9
pkm vsi 27 2
wtt he 98 2
pgq hfl 29 9
qhi dos 72 1
sl hfl 9 2
wmu mir 58 8
uh tx 53 4
qv li 38 3
wfi td 67 4
bic lto 35 8
tqj lid 13 1
va xs 26 7
dnf qf 50 1
oh vu 76 9
xju bus 1 1
db ux 92 3
tf lec 22 9
jf kq 87 9
b qhi 9 5
weq aep 59 3
to oj 6 2
h cvc 58 8
to g 12 5
lv qxm 99 8
cti tkg 17 3
gc hiq 30 6
chr bxd 12 1
w nf 6 6
k gr 31 1
hb xau 71 5
s xp 43 1
afq cx 86 1
pw dnf 34 3
ai aiz 51 6
lvl ev 23 3
ue bk 63 1
sp lxs 84 9
va fqf 57 3
rhs zdg 49 5
fqf oo 10 6
mj uch 46 1
xj kx 3 7
he no 45 5
bk nwb 37 2
lzp tkg 60 9
rl fbj 66 1
xe qv 9 8
wtw dst 77 9
get lx 88 5
vk ah 16 4
ift ub 24 4
zc uc 82 8
cr ow 75 8
ao th 63 9
bc tq 44 1
dnc cgx 46 4
tva nf 77 2
iqt nm 91 5
jbt dnc 81 8
u sjg 1 2
vk msc 49 3
sqg kw 48 6
qxm tx 42 6
zc zc 99 4
tt qs 87 7
xju xol 86 2
o rw 61 4
jv pdj 42 1
ux za 48 4
d frc 29 3
ugp rz 11 4
bso eoc 33 3
rpu wv 40 6
f n 44 9
ioj oe 90 6
xtw pv 92 6
nb j 32 3
xz taw 24 5
td jbu 41 7
nj zr 56 2
bso mmn 40 9
ue kq 23 3
