ob tv 30 3
alv jnx 8 5
tim io 23 3
uma okc 54 7
fsf qp 51 1
wnm wng 69 7
fw ixe 99 5
gx ent 66 2
bs izs 7 1
jio wk 64 8
nhp obo 94 3
st qqm 10 4
bm bh 74 2
fw rq 8 5
mx ie 41 4
gh gu 78 3
abq qjo 74 4
cn nvz 75 9
sjb wz 65 6
a wv 35 4
as kzv 23 4
uma vq 32 2
alv ent 11 9
io js 9 6
ex frj 58 6
mqd bc 35 2
deo hs 25 1
hfe uvj 10 1
fb lqg 36 9
qga rvu 4 2
mfg cs 93 4
hhe dia 4 2
do wij 57 4
mib gkz 38 2
rk qo 45 5
lg xg 34 8
sjo hs 33 3
obo xo 66 9
dia dqs 39 5
njt wl 32 3
okc nh 97 3
ixe sf 42 3
la q 27 3
lb vnu 20 3
alv trg 27 7
wl pz 97 6
mr su 57 9
gub bfg 44 4
xx rjo 89 6
wf opt 90 8
cjh qq 18 8
m rnj 70 2
vtf deo 17 6
ped zi 76 1
hr zoi 76 6
ui zoi 55 9
ht rf 5 8
rhm fsf 6 8
jx rcu 95 5
pr vjv 64 9
nav mt 46 9
oxc o 11 4
st tvi 60 1
lv po 81 9
ie mel 92 8
tzm dx 94 8
wd el 58 3
of oj 95 7
rjo etn 1 5
cf wf 47 2
ml hlx 50 6
lpe fx 38 5
rf jq 2 2
gm roe 70 3
sf jbp 81 6
uca gxk 63 5
wv oq 50 5
ez sjo 48 4
la cjh 88 2
ssz knq 91 1
qtf etn 1 2
wf vhm 75 3
bjd eoc 29 5
xlm sp 58 7
njt sb 46 9
x nvz 67 9
fb co 32 6
cog bzk 60 8
vmz zch 56 8
jow wx 53 2
co jgu 24 4
bzf jla 30 1
dwh uj 80 8
xm lr 59 7
oh xil 70 9
lpe vo 66 1
qb xcu 41 3
sow fge 40 6
zgr uvj 95 4
dlu ge 20 6
uca opn 17 7
idi svl 52 8
jsp ql 89 7
deo izs 25 1
whc frj 76 8
ux zkp 9 7
gco hwe 85 2
tvi zm 47 6
nhp gn 71 7
l rvu 82 9
jnx vad 71 9
zag vbg 7 4
dqs ng 51 5
urj lsr 45 6
jnw jow 96 9
dag ofo 38 5
na one 1 8
qjo bh 26 1
dia f 37 7
oxc vid 84 4
tzm dsm 96 9
vjv trg 2 8
tbv zg 93 4
cu rg 4 6
rtv zgp 43 1
cp le 16 9
wwt pj 40 5
cke knq 53 4
nc zm 34 1
zch jbp 13 6
oul eu 87 3
cc eua 13 2
sjo if 98 5
kpa dcs 90 6
smc ku 71 5
izs nd 40 3
z xs 50 1
ad ma 9 2
le sp 83 7
wwt zgr 60 9
gv kzv 67 5
qtt qj 31 3
oex klf 74 9
wum vhm 10 3
fx sow 74 4
eb ms 30 4
bcr ht 15 7
nhp xcu 75 4
xhx aw 45 2
deo twf 38 8
op bx 28 5
adk do 28 2
va tra 9 6
okc ji 40 2
rg smc 7 6
wl wv 66 4
pe bon 28 8
hwe xpd 41 2
mp fsf 37 9
bq lo 7 5
qtf du 57 6
lr waz 8 1
dlu sjb 48 6
sw whc 80 3
tpi ne 4 5
wot dia 24 7
um mqd 94 3
zqz dze 8 9
h cu 84 6
fw js 14 1
ru dze 96 7
frj na 77 6
rtv xh 69 5
xrd bti 72 2
jd pj 50 7
kez dia 19 3
xpd ihb 94 5
fm ld 93 5
pel vb 21 8
ped eoc 74 7
tpi wp 58 1
twf jxq 66 6
fsf xu 10 9
bmk jgn 22 1
xx sgg 90 9
lb nud 8 1
trg cf 44 7
fsf osd 43 5
jv nh 75 7
tzm r 54 1
ee vmz 14 5
qcb hl 89 7
stj hwe 13 6
jth vtf 95 9
uoe sr 8 1
ju vmz 74 5
wvw ns 44 5
qb wvw 31 2
qj dlu 64 2
jnw cn 94 7
co rx 50 4
la mt 9 2
gco bq 28 6
gct ge 5 6
cog ju 43 7
vbg mfg 60 4
ge vhm 72 9
uvj nzs 24 1
ne rf 97 4
tpi c 40 6
ui nvz 86 2
sb lqg 59 6
oew zi 70 2
k zoi 85 7
xk ip 33 6
pxk tg 2 2
roe tbv 75 5
bc pqp 44 1
sr hfe 50 9
i ns 93 2
jz cu 30 8
zqz lt 39 9
gxk hff 64 7
cf bl 37 7
qo op 11 4
xu pqp 8 6
up io 59 2
twf gn 11 8
zoi if 19 4
jnw suz 56 8
xd rvu 89 9
oj zkp 35 7
jgn jxq 34 2
wij dxk 12 6
ta m 54 1
noi xu 76 5
fm jz 11 8
dqs ve 46 6
hlx rtv 77 4
pe lb 97 8
hs obo 83 2
xd xn 85 3
rhm zch 68 2
mj wx 98 8
dx mhd 60 2
fm at 15 5
za ss 21 7
nav kif 95 4
u gh 3 5
xb ehg 59 3
la h 75 7
cs xil 96 8
eok xu 41 4
xth ehg 79 1
cs dgk 61 9
icv oe 81 6
u njt 80 6
asl tc 14 6
p dwh 26 8
mib nrk 60 2
qtt jq 20 6
xp as 68 3
jgu wij 66 6
uj igf 74 4
waz xp 16 7
hl lr 18 4
up wnm 40 4
h bl 31 2
rvu tw 41 1
ng wk 25 3
zg pr 1 4
jxq xu 48 4
jx mv 10 1
ssz a 94 1
to qq 66 6
r ent 11 2
va mv 72 9
rp ju 16 1
up pel 57 1
icv ql 24 9
j ve 46 5
dia sgg 71 6
mhd jv 9 2
v qvh 93 9
gh waz 81 8
stj co 74 6
t zag 72 2
wng ez 15 7
tg hlx 31 3
mj vhm 38 5
ne ql 18 9
pi oxc 97 9
ped pk 86 7
hu xb 74 5
hl sh 6 5
rm hc 99 5
sf kj 78 7
hze hhe 16 5
rx pru 55 7
ssz lpe 61 9
bzf wt 16 8
ntz pel 65 7
el oqk 41 2
vbg pi 49 4
sf oq 30 9
bs hho 8 5
osd pel 53 9
a wnm 23 9
izs lb 36 7
osd tbv 95 5
uca at 52 6
fqf ovj 10 4
bjd ge 63 5
izs zag 66 9
wft l 67 7
ru sm 42 7
dx wp 31 4
dlu zkp 91 6
zfh fqf 57 5
ldr icv 65 5
qd vo 9 7
eu qq 75 5
gqe mj 1 8
ad fj 79 6
ve mw 19 1
nt obo 64 7
lsr dag 43 3
pxk va 46 1
mw imm 54 1
fm tg 41 1
u zkp 79 6
kzu p 76 9
vmz fge 26 4
aw rf 79 4
rp cjs 35 9
idi zgr 41 4
bcr z 1 7
wng ju 36 8
qtt nav 61 7
qb eok 3 6
vq zg 94 4
fw wnm 62 2
icv ng 1 4
f xu 16 8
xpd akf 76 8
wz opt 59 5
cp whc 81 9
ie hlx 61 1
wij sf 74 5
wx lm 77 8
lk vq 11 8
hbq gv 72 6
suz alv 75 6
jwq nhp 82 2
iq jwq 72 5
zg lt 20 1
gev um 7 9
tsp gqe 15 2
if mu 83 9
li rjo 59 7
tg rd 18 3
waz vh 44 4
mt bl 51 3
gub ss 72 4
qtt nc 96 8
ku ge 16 4
va uvj 14 8
mel g 58 2
qtf cp 49 9
lt xu 15 1
dcs qtt 29 2
mw rp 23 9
op pk 88 3
rx cjh 49 3
wv vq 18 3
es na 62 8
at al 47 1
fir hho 78 7
ze wng 63 2
lpe hho 89 4
c jv 34 8
to lo 42 7
hr dqs 75 6
izs uv 10 2
im kez 2 4
rhm le 21 5
urj gu 89 2
ux hbq 43 6
nvz xk 35 7
a hgc 21 5
ve sg 45 1
s urj 74 8
wj hw 40 2
cc hw 12 3
vph sm 23 9
ehg koc 52 9
wd stj 55 6
hr wj 18 4
suz bbn 33 9
lqg vh 13 3
oq ki 11 3
hho le 68 3
eh as 19 9
nh x 45 3
xth mv 44 6
dxk rk 48 1
bcr mr 60 6
jx ofo 85 2
stj ee 62 2
wng lv 72 5
sw oa 63 9
pqz pi 21 3
do gn 68 7
nh vad 78 6
nud jd 48 5
p qga 55 1
rfj uca 20 7
dcs ep 70 8
wvw kif 41 5
noi c 30 8
d bmk 39 7
nud um 44 6
nd vws 18 2
ozj oku 39 1
noi rd 36 8
bh ob 26 5
mfg lx 76 5
jxq df 91 7
lt sjo 37 9
akf bh 56 9
hu ixq 50 8
noi rm 2 3
ve ms 68 1
osd nhp 58 2
gf zg 26 5
ju t 22 5
bq mu 21 1
asl fqf 48 8
tra vjv 24 2
ped va 81 6
b ve 39 7
oq uj 39 6
es xrd 61 7
nd alv 23 9
el fub 84 9
et hze 14 7
bl zag 40 6
gh xpd 72 7
jow lo 93 3
bbn zgr 47 2
ei gv 70 1
wk ie 17 8
oew pt 37 3
xx xs 42 1
ad rd 58 3
xk rm 4 7
xil bzk 86 6
wik ihb 89 8
tra hs 62 8
xt osw 65 9
gxk mz 70 4
jow bm 3 1
tv add 57 8
gkz trg 96 7
bzf eu 28 6
xuv frj 23 3
cog one 26 9
gx hu 72 6
qp gbr 60 1
vmz ve 90 5
of wij 51 3
lt jl 35 9
ld xcu 99 2
imm zgr 55 2
as zm 95 8
cu fj 93 3
jsp zm 60 3
eua roe 90 8
lm svl 49 6
qd sg 1 8
hl ze 45 7
oe twf 12 9
mt sgg 90 4
hff igf 29 9
rd lv 19 3
x li 6 1
kif mp 66 7
bti ixq 87 6
bkt opt 27 3
jl lt 83 2
uv lxm 9 1
jio vtf 28 2
ixq eb 16 7
lua gxk 81 3
qtf rp 92 3
lt xh 96 8
pv smb 64 9
gct ma 64 2
cf rn 71 9
njt vad 38 6
