bj ie 7 5
qa fd 81 9
d eo 53 6
d p 99 5
zq pf 27 4
kn oe 17 1
u h 29 1
wh t 74 8
vw jp 37 1
m se 9 1
pf jx 33 3
rj vh 61 5
vh sq 76 1
s z 43 6
pf w 8 6
ca ib 94 2
zu es 46 7
xn wl 54 2
ne b 18 7
lt ix 2 2
uc kz 37 4
jg zu 63 2
pc x 12 8
a fd 41 7
wc u 91 9
vo bk 93 4
ux wh 66 7
xh ib 70 1
m jx 7 1
ij jg 52 6
sq a 71 1
vm bu 22 2
eo h 17 8
og og 81 4
vf kn 68 5
jg fh 28 5
px s 13 3
ae qa 77 4
xh pm 85 6
bz ot 68 1
q pn 77 5
jg c 80 6
fh k 52 7
bk tl 68 9
ti zu 91 7
dg eh 53 6
pf sr 78 8
ku as 86 4
x z 67 2
lf tk 59 9
ku wl 71 9
jr ib 26 8
wx tl 68 8
k w 26 9
bk ux 85 8
lt fd 1 6
vf ae 68 3
l bv 47 6
vf vf 38 1
kn dv 89 4
ot hl 6 5
w k 86 3
q vm 8 4
bj bu 68 3
m dm 69 9
q oe 25 6
n ca 18 3
dx jx 10 7
bu z 67 7
bk s 86 8
jr wx 54 3
iw sr 8 7
n rj 80 8
a jx 19 2
l bu 99 7
sq eo 2 3
ux es 65 9
pf bz 53 4
s s 60 1
i wh 51 8
zu is 64 4
ca ib 93 1
dm ku 18 1
e pc 43 2
ca as 60 4
e pn 13 3
vo oe 88 7
as ku 1 3
dg xa 44 4
ej vo 68 5
dx x 65 5
bu jr 31 2
zq vw 16 8
pf v 62 2
ej wl 54 9
ot n 28 3
v es 64 3
n vf 36 4
bj fh 97 4
rf xa 44 1
lf q 56 2
jp j 55 5
as fd 77 6
bv bj 83 9
lt n 39 5
bu pm 65 8
fh u 60 5
tk ib 34 7
p x 10 8
ti wx 30 1
bz ku 15 5
cm b 15 1
ot ux 52 1
ae cm 62 3
hf sr 46 9
p pf 90 2
uc pc 37 7
tl s 77 4
o og 97 4
vh vf 88 6
se ux 89 1
hl l 2 1
se vf 49 9
zu wc 57 9
fh t 9 1
wl hl 62 6
es fh 51 6
wh iw 16 4
bj wl 57 7
ux jp 66 1
wl sq 51 8
jx xa 68 5
zu u 13 2
is l 28 6
uc wc 83 9
q no 10 3
vh j 90 8
m c 4 8
oe ux 35 7
rf zu 82 9
t kt 95 8
w hu 62 4
ne x 65 3
ie ej 68 4
jp i 64 8
ij hl 86 1
b ux 42 8
lf px 50 1
bj rf 84 7
cm iw 7 5
ej pn 36 9
t vm 14 2
kt f 38 2
j kn 96 3
kn p 27 3
qa pc 21 6
kn sr 28 3
x dx 38 1
dx o 24 3
se p 65 9
vw xa 2 9
sr iw 70 4
a is 67 6
lt no 4 9
v ix 78 7
vw wx 35 4
c ie 81 1
bj jr 79 1
pf g 93 2
vm u 40 8
kz ej 87 2
vo bk 17 8
oe tl 27 5
hf p 17 2
v ij 53 5
jx oe 24 7
cm lf 96 6
wh a 47 7
qa vh 99 6
jg jg 84 6
ti rd 94 9
ij bz 61 7
bu hu 41 3
bz eo 91 3
xh rj 49 5
bu ne 33 4
is g 92 4
se dm 35 9
vo rj 51 8
ot px 85 1
ej as 56 5
hu tl 94 9
a kz 71 3
sr dx 3 9
r f 22 7
vw ij 10 8
eh pm 60 3
kz sr 68 4
r vh 27 2
o l 37 8
wx ej 50 1
ne pc 60 4
ij ix 10 6
dm qa 43 8
dm ie 49 9
iw g 84 4
c is 7 2
oe tl 98 3
fd ae 45 7
bu jr 41 9
tl hl 57 2
px iw 18 2
kt oe 94 2
rf vh 77 9
r zq 47 8
tl og 38 4
j eo 22 8
rj ca 40 3
ix jx 61 6
sq lt 43 8
dx b 65 6
kn q 72 8
pc bv 38 5
g dg 81 2
as vh 13 3
f ne 6 3
fh kt 22 9
vm wc 7 1
as eo 57 8
jp w 80 1
hf ca 53 5
ku j 69 5
v l 28 2
ti bu 51 4
d es 29 3
px rj 64 4
bu vf 10 9
ca ku 69 8
se ej 41 5
n vf 18 5
m pf 43 8
xn sq 22 7
pn as 58 2
z ti 91 2
ij k 83 6
bz rj 76 2
ne x 87 8
px se 34 2
rj qa 30 9
eo bu 51 9
tk eh 79 8
ux z 78 6
se px 66 1
kz bv 47 3
ae ti 17 3
i pn 4 2
d is 95 9
ae tk 48 6
se og 31 3
wx jl 25 1
pm fh 24 1
bj n 90 6
p hu 67 3
u vo 99 7
x p 91 1
bu f 11 7
ne dg 34 2
jl q 32 2
jx iw 45 2
ij kz 23 5
vo es 95 1
ae e 40 1
wc u 4 1
s ie 76 7
uc bk 45 3
ot h 65 7
k kt 17 4
rf vo 97 8
f vf 73 6
sq k 2 6
as rd 67 7
o oe 96 4
ti no 17 4
sr tl 58 8
u no 66 3
dv tl 26 9
fd sr 37 1
wh sr 62 3
jg bk 17 1
r se 55 7
p ej 70 2
ti q 13 4
ie ne 12 7
i pm 61 3
hl pc 9 3
ix u 38 2
bk ib 52 1
ti vm 51 5
wx ca 79 6
fh kn 72 3
ux tk 82 6
ca kz 4 7
wl bv 68 7
bk hf 89 7
s sq 68 7
jl f 1 8
wl fh 56 3
oe lf 98 7
ca vh 58 4
ca fd 32 4
x eh 59 8
oe tk 65 9
i as 1 2
ti ot 31 9
w oe 26 7
as ae 30 4
e g 24 7
pc hl 11 2
m ib 16 7
bj lt 48 3
m vm 71 1
rf ej 5 7
vm hu 17 7
o ot 97 3
ae r 96 9
hf i 61 8
ie wl 80 7
ux z 50 3
as wc 44 7
dx xn 99 9
bz tl 11 4
bv vw 63 1
jx fh 41 1
hf ti 1 4
og sq 43 8
p px 42 4
wx kt 80 8
rf ne 97 1
x jp 81 8
wl l 88 1
z ej 4 1
g ti 80 6
no jp 24 8
m ie 80 4
r p 95 7
vf dx 58 5
sq hu 30 6
pn l 78 2
zu q 88 1
tk pf 54 3
xa fd 86 4
kt g 6 2
vf uc 97 5
n bu 44 2
s zu 58 8
f uc 95 1
vw s 54 5
fd hl 52 5
bv es 5 5
hl vf 21 1
bj iw 39 2
ej z 21 5
wh qa 7 2
rj dv 30 2
oe pm 1 5
k r 95 4
a oe 72 6
r fh 53 2
pn jr 22 4
oe pf 10 7
ne pf 53 7
pf wx 72 9
jl bj 80 5
x s 34 3
ot t 24 5
zu vo 81 3
as l 16 4
lt v 67 9
rj s 53 5
pm jl 33 3
is jr 88 5
vm d 56 6
p t 97 6
bj v 63 1
v j 34 4
zu sq 45 5
ku fd 4 1
hf v 60 6
o ne 16 6
ej j 65 5
wx l 92 3
x kn 60 4
bu e 17 3
f qa 86 5
tl u 51 5
wh xn 79 3
c q 28 5
wh e 61 3
ot dg 25 3
a k 14 6
e ca 47 5
zq uc 25 8
hl ca 6 5
jx jr 94 6
r bk 21 1
ku r 21 8
ti tk 84 9
i pm 56 7
vo se 33 2
as wc 81 5
ie zu 81 2
ku c 99 2
ti jg 38 2
pf xh 52 6
xh jx 98 7
wc wh 14 8
kn dg 65 4
dm fh 18 8
kz dx 76 1
jr ku 60 8
ku jx 20 7
cm b 33 3
m bk 88 9
vf iw 91 5
dm e 79 9
j dx 22 3
no dg 79 7
sq oe 83 1
ix sq 23 5
lf e 34 8
ux kt 40 1
jg as 55 5
k t 16 2
jg g 88 9
rj w 30 1
jg kn 20 5
wl jr 64 3
wx xn 76 2
wx q 31 7
og vh 4 3
l sq 95 6
ot bj 38 6
as n 60 5
k a 7 8
k bv 64 4
wx d 35 8
p ae 38 5
x m 93 2
jx p 42 9
pf kn 18 5
bv xh 93 7
pf ij 40 1
rd x 46 3
dm d 78 1
hf pm 79 6
k c 9 1
wc bk 12 8
lt no 26 4
bj rd 80 4
dm jp 44 6
oe ot 26 8
zu k 25 1
kt ie 63 2
n se 36 6
g jr 85 3
jx xn 71 7
ku m 61 8
dx vo 24 3
f lf 72 9
ti k 76 2
se ku 61 9
sq bv 16 3
k wx 78 2
r vo 62 4
ix wc 9 8
bu ca 66 7
p b 28 5
ot bu 39 5
jr a 53 4
rj wh 12 4
i bj 85 2
jl e 19 7
f xn 98 1
px i 64 9
ux pn 62 1
l eo 76 6
h ot 24 4
jg rf 71 8
jp bj 19 1
zu f 65 1
qa px 70 5
f bz 79 9
wh vh 36 3
h ie 1 7
kn px 96 9
ib sr 38 2
e hf 32 3
x dg 76 5
bu ae 8 7
a wc 27 2
kt sq 55 9
ej sq 98 2
e fd 28 7
bv m 40 3
cm pf 96 8
eo wl 69 9
cm as 21 8
ux wh 78 4
ku e 24 4
vo x 85 5
s ej 61 3
tl qa 10 2
g xn 97 3
ix dm 18 6
bj e 26 3
b as 76 6
uc rd 97 8
hf f 64 8
lt jl 37 4
lt p 78 2
wh kz 89 7
kn bz 17 2
xa f 58 4
m jp 31 5
q t 98 6
z i 16 3
n bj 44 2
se bj 5 8
ae j 42 9
f og 70 1
g r 75 5
rj wl 17 9
n bz 35 7
jg rj 62 9
t kt 54 4
pm jp 82 2
dm kz 28 1
p px 82 5
jx oe 2 7
bk jr 17 4
ae n 17 2
pm hl 69 6
a se 56 9
rj fd 9 3
k b 52 3
lt j 21 2
h jg 61 5
dg a 7 6
bu og 93 8
wx bj 85 4
l wh 67 9
pc vw 93 6
b jr 60 7
lt eh 43 8
ix is 39 4
xn n 47 9
vf bk 49 5
kz d 87 4
ix as 13 2
n jp 80 4
kn pm 19 8
iw pf 82 1
j dv 53 8
ot dx 15 1
hf ot 12 3
vm hf 50 4
hu d 11 6
bj es 45 7
fd hl 20 1
is g 8 1
rd v 60 7
t qa 15 3
zu w 28 5
zu cm 95 4
a hl 76 7
cm cm 23 7
ie qa 77 2
ej vw 61 3
eh sr 59 1
qa j 62 9
d i 40 1
as w 3 3
p vm 54 3
jl zu 44 9
h ej 99 5
cm bz 38 4
cm bu 98 2
q as 76 8
z fd 51 9
wh fd 51 6
kn qa 21 6
ux ib 12 5
hu kz 84 3
is wc 61 4
jr lf 17 8
ae vf 88 4
vf se 73 2
is uc 38 3
ne b 87 7
eo es 70 8
q n 63 3
m ie 91 9
a g 71 9
ib d 66 5
pn pm 82 7
zq jg 25 4
hl sr 95 1
ux hl 21 2
pc fd 40 1
kn ae 84 7
a a 74 5
hl ot 90 5
ux rd 78 2
hl h 43 2
es ib 48 4
qa dm 81 4
u sr 88 4
n kz 47 4
g jl 18 2
sr ti 78 1
wh wx 83 1
bz pc 62 7
is is 61 3
vh ux 12 9
bv w 72 6
c oe 13 8
ti ne 71 7
jx w 1 6
jg ij 41 4
p k 68 5
b kn 35 5
s vw 6 3
kt vw 94 1
ot wh 55 7
wx k 70 9
i fd 95 5
ca sr 61 5
t ib 84 9
bk o 42 6
fh dm 73 3
dg kz 29 7
zu t 20 3
bv ca 83 8
ca l 69 4
uc ib 19 2
o vf 76 4
bv xa 88 3
ej jx 70 4
og jp 74 1
p lf 6 9
d jp 90 2
j k 6 6
bz bu 81 9
ux rd 65 5
ti bu 72 5
lt rd 63 8
ae c 64 3
h j 93 2
tk vo 81 2
ku as 91 4
iw r 43 6
ix sq 31 2
jr hf 64 7
ne rj 42 6
vh ej 23 5
g dg 75 3
s u 44 1
dx ej 27 2
n pc 95 6
vh lt 15 5
k tl 73 2
ae pm 46 6
se og 47 8
jx q 93 9
eo tk 86 6
zq og 8 7
vo hu 78 7
oe n 46 1
e w 31 4
eh jl 29 2
bu qa 31 8
h hf 53 6
c ux 63 7
hu kn 97 7
vo u 29 7
n ca 1 7
a hu 78 2
px e 50 7
tl d 75 7
g ie 80 5
s ti 36 7
j bz 70 9
hl is 13 3
d wc 13 7
hu u 18 3
ej p 32 1
m ix 24 3
j hl 52 7
kz pn 96 8
xh wh 64 9
c px 95 4
ux jp 88 6
dg xa 33 9
o bu 48 7
lt h 29 2
jl xa 60 6
fd ib 82 1
fd xa 72 7
es lf 96 9
iw hl 68 4
q px 38 6
eo a 5 7
vo jl 24 8
j s 92 4
tl rd 92 3
zq ku 41 1
jr zu 25 1
cm r 30 2
eo o 37 8
lt dg 17 9
g jg 4 1
dg x 87 5
qa j 30 9
is eh 11 5
vm as 1 8
fh m 67 8
pm wx 25 9
bv bz 38 5
r v 62 4
p uc 49 8
kz wh 1 6
b lf 24 7
rj kt 65 2
is as 71 2
oe v 8 6
q vh 83 8
qa ej 6 9
xn hl 17 5
ot a 29 5
qa p 45 9
vm oe 88 9
c k 46 5
xa bk 94 5
ku j 35 4
ne sq 5 4
wx ae 17 8
rj jr 53 7
ej jg 52 5
xn vf 90 3
cm hl 42 5
ij ot 88 3
xh f 29 1
kt rd 12 9
z vf 17 9
ku ij 23 9
ca vw 21 1
zq vo 50 4
wh og 94 1
dx ix 48 2
dv pc 47 1
q w 9 3
no b 46 1
w uc 20 2
eh xa 75 3
lf jr 31 8
iw dv 43 7
vo uc 36 9
px ne 5 3
vf rf 76 6
d pn 75 9
sq jx 73 8
wl qa 76 8
ca w 80 2
dx sq 90 3
kt hu 36 2
bu xh 64 6
ca ib 95 2
z dm 6 6
hu kt 58 5
jg bj 20 3
bk ae 40 3
z z 61 3
hf l 68 6
g wl 81 3
eo wc 1 3
jp bu 11 6
uc wh 2 7
a wl 18 1
bj j 43 3
uc og 45 3
vw u 2 9
zu ux 58 4
hf e 97 5
ot fd 99 7
ti se 58 7
jr wh 91 3
bj is 68 2
g n 88 6
k o 43 6
bu is 81 5
